{
  "project_info": {
    "project_number": "417027121357",
    "firebase_url": "https://graceprintingadmin.firebaseio.com",
    "project_id": "graceprintingadmin",
    "storage_bucket": "graceprintingadmin.appspot.com"
  },
  "client": [
    {
      "client_info": {
        "mobilesdk_app_id": "1:417027121357:android:13f8bea1403a58e4",
        "android_client_info": {
          "package_name": "indo.com.graceprintingadmin"
        }
      },
      "oauth_client": [
        {
          "client_id": "417027121357-knbftj8bllmasbdsc5u3bcgoetvuiamg.apps.googleusercontent.com",
          "client_type": 3
        }
      ],
      "api_key": [
        {
          "current_key": "AIzaSyAov5fGY_m-swZ3qEb3g3UKt5Mn67vqhXE"
        }
      ],
      "services": {
        "analytics_service": {
          "status": 1
        },
        "appinvite_service": {
          "status": 1,
          "other_platform_oauth_client": []
        },
        "ads_service": {
          "status": 2
        }
      }
    }
  ],
  "configuration_version": "1"
}